16;
0;0;0;0;0;0;0;0;0;0;0;0;0;0;0;0;
0;0;0;0;0;0;1;0;0;0;0;0;0;0;0;0;
0;0;0;0;0;0;0;0;0;0;0;0;0;0;0;0;
0;0;0;0;0;0;0;0;0;0;0;0;0;0;0;0;
0;0;0;0;0;1;0;0;1;0;0;0;1;0;1;1;
0;0;0;0;1;0;0;0;0;0;0;0;0;0;0;0;
0;1;0;0;0;0;0;0;1;0;0;0;0;1;0;0;
0;0;0;0;0;0;0;0;0;0;0;0;0;0;0;0;
0;0;0;0;1;0;1;0;0;0;0;0;0;0;0;0;
0;0;0;0;0;0;0;0;0;0;0;0;0;0;0;0;
0;0;0;0;0;0;0;0;0;0;0;0;0;0;0;0;
0;0;0;0;0;0;0;0;0;0;0;0;0;0;0;0;
0;0;0;0;1;0;0;0;0;0;0;0;0;0;0;1;
0;0;0;0;0;0;1;0;0;0;0;0;0;0;0;0;
0;0;0;0;1;0;0;0;0;0;0;0;0;0;0;0;
0;0;0;0;1;0;0;0;0;0;0;0;1;0;0;0;
dados;
ano;2013;
IES;UFBA;
curso;28001010053P9;
conceito;4;
