12;
0;0;0;0;0;0;0;0;0;0;0;0;
0;0;0;0;0;0;0;0;0;0;0;1;
0;0;0;1;0;0;0;0;0;0;1;0;
0;0;1;0;0;0;0;0;0;1;0;0;
0;0;0;0;0;0;0;0;0;0;0;0;
0;0;0;0;0;0;0;0;0;0;0;0;
0;0;0;0;0;0;0;0;0;0;0;0;
0;0;0;0;0;0;0;0;0;0;0;0;
0;0;0;0;0;0;0;0;0;0;0;0;
0;0;0;1;0;0;0;0;0;0;0;0;
0;0;1;0;0;0;0;0;0;0;0;0;
0;1;0;0;0;0;0;0;0;0;0;0;
dados;
ano;2013;
IES;UFPR;
curso;40001016058P1;
conceito;4;
