13;
0;0;0;0;0;0;0;0;0;0;0;0;0;
0;0;0;0;0;0;0;0;0;0;0;0;0;
0;0;0;0;0;0;0;0;0;0;0;0;1;
0;0;0;0;0;0;0;1;0;0;0;0;0;
0;0;0;0;0;0;0;0;0;0;1;0;0;
0;0;0;0;0;0;0;0;0;0;0;0;0;
0;0;0;0;0;0;0;0;0;0;0;0;0;
0;0;0;1;0;0;0;0;0;0;1;0;0;
0;0;0;0;0;0;0;0;0;1;0;0;0;
0;0;0;0;0;0;0;0;1;0;0;1;0;
0;0;0;0;1;0;0;1;0;0;0;0;0;
0;0;0;0;0;0;0;0;0;1;0;0;0;
0;0;1;0;0;0;0;0;0;0;0;0;0;
dados;
ano;2013;
IES;UFGD;
curso;51005018006P8;
conceito;5;
