12;
0;0;0;0;0;0;0;0;0;0;0;0;
0;0;0;0;0;0;0;0;0;0;0;0;
0;0;0;0;0;1;0;0;0;0;0;0;
0;0;0;0;0;0;0;0;0;0;0;1;
0;0;0;0;0;0;0;0;0;0;0;0;
0;0;1;0;0;0;0;1;0;0;0;0;
0;0;0;0;0;0;0;1;0;0;1;0;
0;0;0;0;0;1;1;0;1;0;1;0;
0;0;0;0;0;0;0;1;0;0;0;0;
0;0;0;0;0;0;0;0;0;0;0;0;
0;0;0;0;0;0;1;1;0;0;0;0;
0;0;0;1;0;0;0;0;0;0;0;0;
dados;
ano;2013;
IES;UERJ;
curso;31004016021P4;
conceito;6;
