5927149543717327
7897779819494573
4754562885515304
2483185411923070
3112476528507003
7767998250007993
7228906971455111
6401622195719726
4049958660392553
5363080225273626
5969382268977201
5329137760546794
1626030153202401
1428637808064409
0793325217875702
1073307881297127
2562159376424787
2272781877323360
9170893104155674
5661286013847300
0954702216542832
