1594166432902815
4021221951532780
2000229988155180
6011173098920647
9240408084073924
6681901233106761
0127311881416610
1115148358376830
2990931894696551
1078191261050953
5635972225700254
2226174429595901
0710445450203722
6534155964288521
1232912658971080
6700468393002141
5262883034261875
1079662152082050
0905026139974742
7154209097486158
