6681044486435612
9127577198387019
2487554612123446
5293684092572886
9530065975903052
2440193189134197
9559119135506333
4695699230584970
3967943593612229
0311818140902541
7733681743453751
0375745110240885
6907017215672171
6654924341615471
9030707448549156
4797934811107085
6685666727183074
9374460427113373
9672291905868428
9998509212446471
3074561832181610
8602778120667424
6653435398940498
4802548698016081
