5138758521691630
3424804303469383
0540194149670095
2782164252734586
9999217523842385
9722066254398087
4058978461118686
4046984728286369
1594563006260546
9568978600271651
9598830642714873
4619779231164354
0816918235211326
5352934762312741
7481868767930127
0122916218414168
0007890894387249
4790067937575654
5501474017902654
