7898168715320830
1154019717568830
9884950393500991
6672178100422350
3894096111082082
8476129194599888
9865056179221557
6799036574745985
6324333547922986
3664441705741783
4338284890563991
2600285500812676
4197517952230421
2408574220216968
7781627333249561
0545330428695112
3248624160410975
