9534086378993774
3894445999140917
9457849435452537
2433732826278230
6392597835724138
7034421658733755
3774236764847974
1570902612226384
9722354090220021
1173194566549997
5358851504202129
3644027876437753
1091943486026876
