5634231159637601
7640108116459444
6511292268901783
2479225716217997
1532505326645535
3637940122788341
0067281135180613
3254944113298230
9666500788789379
3792275882221002
3888145024042412
9061098995683609
8041183668335400
7088164201134128
5192533875584788
2449347153075493
