2784997614182231
0573677979512967
3801901177718984
5529104805521519
8204044573317813
1834964619080647
4207075808724945
2616818240703655
8873683560219910
7374114444149568
6890118483209098
4970091740105771
4347965302097614
1434906331576002
