4126333722808926
3993754230332852
2940950386915746
9957040164697410
4351787196667659
8902002461422112
4282182643218971
0493375103185241
9571448750638016
4610025058115796
2004501146244643
7207626266770213
1246776718921674
2365062530984470
0694763280780750
7026313596468626
7670261541550702
5133689561975976
5357593344734958
