0320385790880256
2720547210430667
6812943821298890
2804708148095897
4458297213334898
7935943969315043
0673627615524075
7446082583928169
8361766779633132
4879855586762572
9277814890785373
1744258408524503
0326719214777541
5451087590848842
5570543667939997
3009425852002651
4104101783976483
8056542335438905
