8821536792042504
0704248561279452
7696000869833399
5222182427171497
2546799455900003
0200709054904002
4668488266463689
7112745645895347
8080697890419252
2772680929789725
1644931272174401
6304377549101792
2755740550497444
6032273849847285
3569271948805982
3206145669430720
6148546666142551
3303713473565543
