7315592936477868
2029610058780121
8989199088323836
8102993969523532
8326803963394077
0472856771871140
9237713158265249
4448540530244733
7170508510503648
2517619300805032
2440193189134197
6418711808050575
0635728154206559
2770691272825932
9950879952262717
4855123625274479
0375745110240885
2332051647489024
7489426320194892
4054756781423727
3336105307698769
3423133876430218
7200733421420566
8344194525615133
1906825541995385
5337477770035604
9037349417947599
1392335366884977
8203775174455802
1391205251405727
0717161560405537
3313361232260092
2207239537360072
4891962642648106
9273702863744424
2980425786626151
6688041530466410
2605062132611045
4587299173539062
1471432563506193
2317714197108593
