5168823546200073
2457288050551507
8770504176315688
0454490389384070
7922883899350072
4747688995030114
7570531731586622
5404510836890906
9384248704175019
0842839875354837
2548465543413592
1830583070196670
6915167878159935
5962729413743903
9955844127080187
4971992089945389
3479238992958178
6523418902214780
2397508258376320
4985544206160545
5404226656803469
