0174551632500870
9737143632051924
2895266490164675
0450255381559550
8300496710272234
1283869098677703
3564597309576489
2392163572020455
9431313605945669
7442068334410248
7209599572627626
9807601418124791
1122249150531103
6502942873335887
9006683778296973
5793213524176108
7377208244445092
4390865555343440
6725111583151806
9577818173126430
