1882712230914196
5884461869811166
3280707979820725
4979344841683251
9910965797411044
9638407992652406
3751287338655685
5849711278501873
8417343618934636
1126886933267406
2302756561160804
5446515762795697
8962021573218552
