1216871665198656
0827495526048435
2318177531681999
4710295079878737
6318242014807642
7325616838190292
4198814149144165
1068554491963326
2038805993153668
5515216429938578
4889413058276292
4218896753382242
8792749813872106
2488734578237992
9979732565759430
1758254967187398
0980158087171155
5153240741855255
