1348339517901277
8000075966681149
2699196515879292
8200282913635713
7253800571271613
8452695309949645
1913450752136533
3608337314955861
3684400139138167
2679662557433472
9615242685505657
4762940910820774
6535849579850035
