2488515249747169
6603067354811112
1987040329676323
5679206511284680
0149421197228356
9870100888537897
3350119903495479
5209245987326574
4396532007704107
5566869997738091
3966520672292193
5356631364526373
1843587196655459
3224222404689806
5742286307682505
5891290481492220
4511646102728382
1277989540271729
6198722804410996
8679123716738439
7066276230059704
2146827739602504
6894406506982056
