2714004273523549
7323208655095786
5554521673242197
8785084711227475
7462836318959519
5457685717818972
0103007276004318
5022093326416720
5110201839173694
1112267139974300
5205312713550726
6880602655569729
3163615920051354
9295156379317498
5753425860064151
1170276374555216
7434834118689893
3881871836797116
4153684635603288
6104324016617272
5319016786437596
2954830416817871
1687762820299841
3581140143386171
6863147508230737
7275057980870698
