2788746611966148
0745540078227078
5873501544862121
7906324507297720
9138713186222689
8985411452053151
5957012058055684
8751039433936733
6867974583171879
7555056380237240
4579094367682774
7746180636386397
9407598996214027
6355524106823657
