1289646338155108
7216098788423041
3008972872111623
0151285357488920
0750048720229101
9641517111540508
6653642556441432
0516705125074931
4996617566496046
7527231134789887
1950137747785419
3265471567908195
8259839362903281
9304493875700070
3217849199882153
2920848355110000
6449109891449053
7523573139592166
8437491371699720
0783231483314728
4038930548278283
5897443860808783
6288735286919040
0507188444713095
8328754543048690
4608185787860314
6781668980019865
0721743417678801
5654735215017528
7275459975924414
7484079626270248
8715488365201101
5773105347762056
8494271331675279
3283741881583320
8404941083767535
9376203096430598
5685434166341583
3620197655490764
4225442402720592
0938805013383423
6637517443126827
7864516272646970
4685833009997780
1209937575998431
5557224649687028
