1697861907187914
3033591975237656
6715272307281643
2170981286370303
8998670968329882
7999781322175310
3997654537105134
2592421050973340
1208427854093144
6557298196355263
9781159016378038
8149364045680042
7877403729431750
2547403563036811
