5764635299335289
9916588298312326
9506136012570087
0832298305352059
8810489697768335
0427736982554233
4007512293061299
1859027020843429
4397982308559255
0307859719242030
7692617542610686
1635475892372110
