4212280532558083
4615245702160544
0105707010434668
1123962153173475
3624370723788970
6320661844629609
8529549983857097
2603433458436438
5762548246076451
2262428543098100
4397388543222105
4915694295850733
9929269532617448
0182914969079164
7887148115540704
6833721744326745
2125771574338340
2368005158362357
0016066069380492
1855232571882443
