3417734567782570
1838276397621049
9061067320839776
8384020879567133
5803464064476531
2383628271548614
0087804302005744
2560106052820991
7122524744613697
9205464082942072
6096624359077545
5466915298318577
5034444360451621
3225963678857568
4221004979116020
