3615688579946805
8006865596138564
4939043777843624
6126104853334196
2248567464602970
4524868466523562
6783064368837751
4365891367994000
8052370131852533
1277202985083208
9588738213862295
9098047398813476
9648922160710438
1209386477961973
5845787647988303
9133608322839843
9953503354410892
9900648217984726
0245365238186836
9365621716036199
