3678668865183045
3569470521730110
2147386441758156
0382304490753424
0646085361798175
2179657609596194
3809285940688486
7655166434217513
9938713955885093
8750334661789610
2542529753132844
3138898469532698
