0891028206544818
4677312523064693
4740997358938163
4984043849101331
6854950768271660
9414212573217453
0120359380643615
5324300115339036
1129100746134234
3761060945802171
1660157566796755
7153399270700704
1131858526704034
1606080164385644
5895086145314795
8800859024101679
9208597675311324
7670196776586335
