18;
0;0;0;0;0;0;0;0;0;0;0;0;0;0;0;0;0;0;
0;0;0;0;0;0;0;0;0;0;0;0;0;0;0;0;0;1;
0;0;0;0;0;0;0;1;0;0;0;0;0;0;0;1;0;0;
0;0;0;0;0;0;0;0;0;0;0;0;1;0;0;0;1;0;
0;0;0;0;0;0;0;1;0;0;0;1;0;0;0;1;0;0;
0;0;0;0;0;0;0;0;0;0;0;0;0;0;0;0;0;0;
0;0;0;0;0;0;0;1;0;0;0;1;0;0;0;1;0;0;
0;0;1;0;1;0;1;0;0;0;0;1;0;0;0;1;0;0;
0;0;0;0;0;0;0;0;0;0;0;0;0;0;0;0;0;0;
0;0;0;0;0;0;0;0;0;0;0;0;0;0;0;0;0;0;
0;0;0;0;0;0;0;0;0;0;0;0;0;0;0;0;0;1;
0;0;0;0;1;0;1;1;0;0;0;0;0;0;0;1;0;0;
0;0;0;1;0;0;0;0;0;0;0;0;0;0;0;0;1;0;
0;0;0;0;0;0;0;0;0;0;0;0;0;0;0;0;0;0;
0;0;0;0;0;0;0;0;0;0;0;0;0;0;0;0;0;0;
0;0;1;0;1;0;1;1;0;0;0;1;0;0;0;0;0;0;
0;0;0;1;0;0;0;0;0;0;0;0;1;0;0;0;0;0;
0;1;0;0;0;0;0;0;0;0;1;0;0;0;0;0;0;0;
dados;
ano;2014;
IES;FURG;
curso;42004012014P9;
conceito;4;
