15;
0;0;0;1;1;0;1;0;0;1;0;1;0;0;0;
0;0;0;1;1;0;0;0;0;0;0;0;0;0;0;
0;0;0;0;0;0;0;0;0;0;0;1;0;0;0;
1;1;0;0;1;0;0;0;1;1;0;0;0;0;0;
1;1;0;1;0;0;1;0;0;0;0;0;1;0;0;
0;0;0;0;0;0;0;0;0;0;0;0;0;0;0;
1;0;0;0;1;0;0;0;0;0;0;0;0;0;0;
0;0;0;0;0;0;0;0;0;0;0;0;0;0;0;
0;0;0;1;0;0;0;0;0;0;1;0;0;0;0;
1;0;0;1;0;0;0;0;0;0;0;1;0;0;1;
0;0;0;0;0;0;0;0;1;0;0;0;0;1;1;
1;0;1;0;0;0;0;0;0;1;0;0;0;0;0;
0;0;0;0;1;0;0;0;0;0;0;0;0;0;0;
0;0;0;0;0;0;0;0;0;0;1;0;0;0;0;
0;0;0;0;0;0;0;0;0;1;1;0;0;0;0;
dados;
ano;2016;
IES;PUC-SP;
curso;33005010032P1;
conceito;4;
