18;
0;0;0;0;0;1;0;0;1;0;0;0;0;0;0;0;0;1;
0;0;0;0;0;0;0;0;0;0;0;0;1;0;0;1;0;0;
0;0;0;0;0;0;0;1;0;0;0;0;0;0;0;0;1;0;
0;0;0;0;1;0;0;1;0;0;0;0;0;1;0;0;1;0;
0;0;0;1;0;0;0;0;0;0;0;0;0;1;0;0;0;0;
1;0;0;0;0;0;0;0;1;0;0;0;0;0;0;0;0;0;
0;0;0;0;0;0;0;0;0;0;0;0;0;1;0;1;0;0;
0;0;1;1;0;0;0;0;0;0;0;0;0;0;0;0;0;0;
1;0;0;0;0;1;0;0;0;0;0;0;0;0;0;1;0;0;
0;0;0;0;0;0;0;0;0;0;0;0;0;0;0;0;1;0;
0;0;0;0;0;0;0;0;0;0;0;0;0;1;0;0;1;0;
0;0;0;0;0;0;0;0;0;0;0;0;0;0;0;0;0;0;
0;1;0;0;0;0;0;0;0;0;0;0;0;0;0;1;0;0;
0;0;0;1;1;0;1;0;0;0;1;0;0;0;0;1;1;0;
0;0;0;0;0;0;0;0;0;0;0;0;0;0;0;0;0;0;
0;1;0;0;0;0;1;0;1;0;0;0;1;1;0;0;1;0;
0;0;1;1;0;0;0;0;0;1;1;0;0;1;0;1;0;0;
1;0;0;0;0;0;0;0;0;0;0;0;0;0;0;0;0;0;
dados;
ano;2015;
IES;UFN;
curso;42039010002P8;
conceito;4;
