16;
0;0;0;0;0;0;0;0;0;0;0;0;0;0;0;0;
0;0;0;1;1;0;0;0;0;1;0;1;1;1;1;0;
0;0;0;0;0;0;0;0;0;0;0;0;0;0;0;0;
0;1;0;0;1;0;0;0;0;0;0;1;0;1;0;0;
0;1;0;1;0;0;0;0;0;1;0;0;0;1;0;0;
0;0;0;0;0;0;0;0;0;0;0;0;0;0;0;0;
0;0;0;0;0;0;0;0;0;0;0;0;0;0;0;0;
0;0;0;0;0;0;0;0;0;0;0;0;0;0;0;0;
0;0;0;0;0;0;0;0;0;0;0;0;0;0;0;0;
0;1;0;0;1;0;0;0;0;0;0;0;0;0;1;1;
0;0;0;0;0;0;0;0;0;0;0;0;0;1;0;0;
0;1;0;1;0;0;0;0;0;0;0;0;0;1;0;0;
0;1;0;0;0;0;0;0;0;0;0;0;0;0;1;0;
0;1;0;1;1;0;0;0;0;0;1;1;0;0;0;0;
0;1;0;0;0;0;0;0;0;1;0;0;1;0;0;1;
0;0;0;0;0;0;0;0;0;1;0;0;0;0;1;0;
dados;
ano;2017;
IES;UFG;
curso;52001016061P6;
conceito;4;
