13;
0;0;0;0;1;0;0;1;0;0;0;1;0;
0;0;0;0;0;0;0;0;0;0;0;0;1;
0;0;0;0;0;0;0;0;0;0;0;0;0;
0;0;0;0;0;0;0;0;0;0;0;0;0;
1;0;0;0;0;0;1;1;0;0;0;1;0;
0;0;0;0;0;0;0;0;1;0;0;0;0;
0;0;0;0;1;0;0;0;0;0;0;0;0;
1;0;0;0;1;0;0;0;0;0;0;1;0;
0;0;0;0;0;1;0;0;0;0;0;0;0;
0;0;0;0;0;0;0;0;0;0;0;0;0;
0;0;0;0;0;0;0;0;0;0;0;0;0;
1;0;0;0;1;0;0;1;0;0;0;0;0;
0;1;0;0;0;0;0;0;0;0;0;0;0;
dados;
ano;2017;
IES;UFPEL;
curso;42003016051P5;
conceito;3;
