13;
0;0;1;0;0;0;0;1;0;1;0;1;1;
0;0;1;1;0;0;0;0;0;1;1;0;0;
1;1;0;1;0;0;0;0;0;1;0;1;1;
0;1;1;0;0;1;0;0;0;1;1;0;0;
0;0;0;0;0;0;0;0;0;0;0;0;0;
0;0;0;1;0;0;0;0;0;0;0;0;0;
0;0;0;0;0;0;0;0;0;0;0;0;0;
1;0;0;0;0;0;0;0;0;0;0;0;0;
0;0;0;0;0;0;0;0;0;0;0;0;0;
1;1;1;1;0;0;0;0;0;0;1;0;1;
0;1;0;1;0;0;0;0;0;1;0;0;0;
1;0;1;0;0;0;0;0;0;0;0;0;1;
1;0;1;0;0;0;0;0;0;1;0;1;0;
dados;
ano;2017;
IES;UNISO;
curso;33065012004P5;
conceito;4;
