15;
0;0;1;1;0;0;0;0;0;0;0;0;0;0;0;
0;0;0;0;1;0;1;0;0;0;1;0;0;0;0;
1;0;0;1;0;0;0;0;0;0;0;0;0;0;0;
1;0;1;0;0;0;0;0;0;0;0;0;0;0;0;
0;1;0;0;0;0;1;0;0;0;0;0;0;0;0;
0;0;0;0;0;0;0;0;0;0;0;0;0;0;0;
0;1;0;0;1;0;0;0;0;0;1;0;0;0;0;
0;0;0;0;0;0;0;0;0;0;0;0;0;0;0;
0;0;0;0;0;0;0;0;0;0;0;0;0;0;0;
0;0;0;0;0;0;0;0;0;0;0;0;0;0;0;
0;1;0;0;0;0;1;0;0;0;0;0;0;0;0;
0;0;0;0;0;0;0;0;0;0;0;0;0;0;0;
0;0;0;0;0;0;0;0;0;0;0;0;0;0;0;
0;0;0;0;0;0;0;0;0;0;0;0;0;0;0;
0;0;0;0;0;0;0;0;0;0;0;0;0;0;0;
dados;
ano;2015;
IES;UFSC;
curso;41001010087P8;
conceito;3;
