13;
0;0;0;0;0;0;0;0;0;0;0;0;1;
0;0;0;1;0;0;0;1;0;1;1;0;0;
0;0;0;0;0;0;0;0;0;0;0;0;0;
0;1;0;0;0;0;0;1;0;0;0;0;0;
0;0;0;0;0;0;0;0;0;0;0;0;0;
0;0;0;0;0;0;1;0;0;0;0;0;1;
0;0;0;0;0;1;0;0;0;0;0;0;1;
0;1;0;1;0;0;0;0;1;0;0;0;0;
0;0;0;0;0;0;0;1;0;0;0;0;0;
0;1;0;0;0;0;0;0;0;0;1;1;0;
0;1;0;0;0;0;0;0;0;1;0;0;0;
0;0;0;0;0;0;0;0;0;1;0;0;0;
1;0;0;0;0;1;1;0;0;0;0;0;0;
dados;
ano;2016;
IES;UNINOVE;
curso;33092010016P3;
conceito;4;
