15;
0;0;0;0;0;1;0;0;0;0;0;0;0;0;0;
0;0;0;0;0;0;0;0;0;0;0;0;0;0;0;
0;0;0;0;0;0;1;0;0;0;0;0;1;0;0;
0;0;0;0;0;0;0;0;0;0;0;0;0;0;0;
0;0;0;0;0;0;0;1;0;0;0;0;1;1;0;
1;0;0;0;0;0;0;0;0;0;0;0;0;0;0;
0;0;1;0;0;0;0;0;0;0;0;0;1;0;0;
0;0;0;0;1;0;0;0;0;0;0;0;1;1;0;
0;0;0;0;0;0;0;0;0;0;0;0;0;1;0;
0;0;0;0;0;0;0;0;0;0;0;0;0;0;1;
0;0;0;0;0;0;0;0;0;0;0;0;1;0;0;
0;0;0;0;0;0;0;0;0;0;0;0;0;0;0;
0;0;1;0;1;0;1;1;0;0;1;0;0;0;0;
0;0;0;0;1;0;0;1;1;0;0;0;0;0;1;
0;0;0;0;0;0;0;0;0;1;0;0;0;1;0;
dados;
ano;2016;
IES;UFES;
curso;30001013047P1;
conceito;3;
