12;
0;0;0;0;0;0;0;0;0;0;0;0;
0;0;0;0;0;0;0;0;0;0;0;0;
0;0;0;0;0;0;0;0;0;0;0;0;
0;0;0;0;1;0;0;1;0;0;1;1;
0;0;0;1;0;0;0;1;0;0;1;1;
0;0;0;0;0;0;0;0;0;0;0;0;
0;0;0;0;0;0;0;0;0;0;0;0;
0;0;0;1;1;0;0;0;0;0;0;0;
0;0;0;0;0;0;0;0;0;0;0;0;
0;0;0;0;0;0;0;0;0;0;0;0;
0;0;0;1;1;0;0;0;0;0;0;0;
0;0;0;1;1;0;0;0;0;0;0;0;
dados;
ano;2016;
IES;UCB;
curso;53003012006P0;
conceito;4;
