18;
0;0;0;0;0;0;0;0;0;0;0;0;0;0;1;0;0;1;
0;0;0;0;0;0;1;0;0;0;0;0;0;0;0;0;0;0;
0;0;0;0;0;0;0;0;0;0;0;0;0;0;0;0;0;0;
0;0;0;0;0;0;0;0;0;1;0;0;0;0;0;0;0;0;
0;0;0;0;0;0;1;0;0;1;0;1;0;0;1;0;0;0;
0;0;0;0;0;0;0;0;0;0;0;0;0;0;0;0;0;0;
0;1;0;0;1;0;0;0;0;1;0;0;0;0;0;0;0;0;
0;0;0;0;0;0;0;0;1;1;0;0;0;0;0;0;0;0;
0;0;0;0;0;0;0;1;0;1;0;0;0;0;0;1;0;0;
0;0;0;1;1;0;1;1;1;0;0;1;0;0;0;0;0;0;
0;0;0;0;0;0;0;0;0;0;0;0;1;0;0;0;0;0;
0;0;0;0;1;0;0;0;0;1;0;0;0;0;0;0;0;0;
0;0;0;0;0;0;0;0;0;0;1;0;0;0;0;1;0;0;
0;0;0;0;0;0;0;0;0;0;0;0;0;0;0;1;0;0;
1;0;0;0;1;0;0;0;0;0;0;0;0;0;0;0;1;0;
0;0;0;0;0;0;0;0;1;0;0;0;1;1;0;0;0;0;
0;0;0;0;0;0;0;0;0;0;0;0;0;0;1;0;0;0;
1;0;0;0;0;0;0;0;0;0;0;0;0;0;0;0;0;0;
dados;
ano;2017;
IES;UERJ;
curso;31004016021P4;
conceito;6;
