22;
0;0;1;0;0;0;0;0;0;1;1;0;0;0;0;0;1;0;0;0;0;0;
0;0;1;0;1;0;0;0;0;0;0;0;0;1;0;1;0;0;0;0;0;0;
1;1;0;0;0;0;0;0;0;0;0;0;0;1;0;0;0;0;0;0;0;0;
0;0;0;0;1;1;0;1;0;0;0;0;0;0;0;0;0;0;0;0;1;0;
0;1;0;1;0;0;0;1;0;0;0;0;0;1;0;0;0;0;0;0;0;0;
0;0;0;1;0;0;0;0;0;0;0;0;0;0;0;1;0;0;0;0;1;0;
0;0;0;0;0;0;0;0;0;0;0;0;0;0;0;0;0;0;0;0;1;0;
0;0;0;1;1;0;0;0;0;0;0;0;0;0;0;0;0;0;0;0;0;0;
0;0;0;0;0;0;0;0;0;0;0;0;0;0;0;0;0;0;0;0;0;0;
1;0;0;0;0;0;0;0;0;0;1;0;0;0;1;0;0;1;0;0;0;0;
1;0;0;0;0;0;0;0;0;1;0;0;0;0;0;0;1;0;0;0;0;0;
0;0;0;0;0;0;0;0;0;0;0;0;0;0;0;0;0;0;0;0;0;0;
0;0;0;0;0;0;0;0;0;0;0;0;0;0;0;0;0;0;0;0;0;0;
0;1;1;0;1;0;0;0;0;0;0;0;0;0;0;1;0;0;0;0;0;0;
0;0;0;0;0;0;0;0;0;1;0;0;0;0;0;0;1;0;0;0;0;0;
0;1;0;0;0;1;0;0;0;0;0;0;0;1;0;0;0;0;0;0;1;0;
1;0;0;0;0;0;0;0;0;0;1;0;0;0;1;0;0;1;0;0;0;0;
0;0;0;0;0;0;0;0;0;1;0;0;0;0;0;0;1;0;0;0;0;0;
0;0;0;0;0;0;0;0;0;0;0;0;0;0;0;0;0;0;0;0;0;0;
0;0;0;0;0;0;0;0;0;0;0;0;0;0;0;0;0;0;0;0;0;0;
0;0;0;1;0;1;1;0;0;0;0;0;0;0;0;1;0;0;0;0;0;0;
0;0;0;0;0;0;0;0;0;0;0;0;0;0;0;0;0;0;0;0;0;0;
dados;
ano;2017;
IES;UFJF;
curso;32005016017P6;
conceito;4;
