17;
0;0;0;1;1;0;0;0;0;0;0;0;0;0;0;0;0;
0;0;0;0;0;0;1;0;0;0;0;0;0;0;0;0;0;
0;0;0;0;0;0;0;0;0;1;0;0;0;0;0;0;0;
1;0;0;0;0;0;0;0;0;0;1;1;1;0;1;0;0;
1;0;0;0;0;0;0;0;0;0;0;0;0;0;0;0;0;
0;0;0;0;0;0;1;1;1;0;1;0;0;0;0;0;1;
0;1;0;0;0;1;0;0;0;0;0;0;0;0;0;0;1;
0;0;0;0;0;1;0;0;0;0;1;0;0;0;0;1;0;
0;0;0;0;0;1;0;0;0;0;0;0;0;0;0;0;0;
0;0;1;0;0;0;0;0;0;0;0;0;0;0;1;0;0;
0;0;0;1;0;1;0;1;0;0;0;0;0;0;1;0;0;
0;0;0;1;0;0;0;0;0;0;0;0;0;0;1;0;0;
0;0;0;1;0;0;0;0;0;0;0;0;0;0;0;0;0;
0;0;0;0;0;0;0;0;0;0;0;0;0;0;0;0;0;
0;0;0;1;0;0;0;0;0;1;1;1;0;0;0;0;0;
0;0;0;0;0;0;0;1;0;0;0;0;0;0;0;0;0;
0;0;0;0;0;1;1;0;0;0;0;0;0;0;0;0;0;
dados;
ano;2017;
IES;INPI;
curso;31068014002P6;
conceito;4;
