16;
0;0;0;0;0;0;0;0;0;0;0;0;0;0;0;0;
0;0;1;1;0;0;0;0;0;0;0;0;0;0;0;1;
0;1;0;1;0;0;0;0;0;0;0;0;0;0;0;1;
0;1;1;0;0;0;0;0;0;0;0;0;0;0;0;1;
0;0;0;0;0;0;0;0;0;0;0;0;0;0;0;0;
0;0;0;0;0;0;0;0;0;0;0;0;0;0;0;0;
0;0;0;0;0;0;0;0;0;0;0;0;0;0;0;0;
0;0;0;0;0;0;0;0;0;0;0;0;0;0;0;0;
0;0;0;0;0;0;0;0;0;0;0;0;0;0;0;0;
0;0;0;0;0;0;0;0;0;0;0;0;0;0;0;0;
0;0;0;0;0;0;0;0;0;0;0;0;0;0;0;1;
0;0;0;0;0;0;0;0;0;0;0;0;1;0;0;0;
0;0;0;0;0;0;0;0;0;0;0;1;0;0;0;0;
0;0;0;0;0;0;0;0;0;0;0;0;0;0;0;0;
0;0;0;0;0;0;0;0;0;0;0;0;0;0;0;0;
0;1;1;1;0;0;0;0;0;0;1;0;0;0;0;0;
dados;
ano;2014;
IES;UNESP-BAURU;
curso;33004056088P9;
conceito;4;
