12;
0;0;0;0;0;0;0;0;0;0;0;0;
0;0;0;0;0;0;0;0;0;0;0;1;
0;0;0;0;0;0;1;0;0;0;1;0;
0;0;0;0;0;0;0;0;0;0;0;0;
0;0;0;0;0;1;0;0;0;0;0;0;
0;0;0;0;1;0;0;0;0;0;0;0;
0;0;1;0;0;0;0;0;0;0;1;0;
0;0;0;0;0;0;0;0;0;0;0;0;
0;0;0;0;0;0;0;0;0;0;0;0;
0;0;0;0;0;0;0;0;0;0;0;0;
0;0;1;0;0;0;1;0;0;0;0;0;
0;1;0;0;0;0;0;0;0;0;0;0;
dados;
ano;2014;
IES;UNIJUI;
curso;42024013001P8;
conceito;4;
